…
## import Professor Trash Wheel data

``` r
raw_data3 <- read_excel("data/Trash-Wheel-Collection-Totals-7-2020-2.xlsx",
                        sheet = "Professor Trash Wheel",
                        skip = 1)
raw_data3
```

    ## # A tibble: 115 × 14
    ##    Dumpster Month       Year Date                Weigh…¹ Volum…² Plast…³ Polys…⁴
    ##       <dbl> <chr>      <dbl> <dttm>                <dbl>   <dbl>   <dbl>   <dbl>
    ##  1        1 January     2017 2017-01-02 00:00:00    1.79      15    1950    6080
    ##  2        2 January     2017 2017-01-30 00:00:00    1.58      15    9540   11230
    ##  3       NA January T…    NA NA                     3.37      30   11490   17310
    ##  4        3 February    2017 2017-02-26 00:00:00    2.32      18    8350    9210
    ##  5        4 February    2017 2017-02-26 00:00:00    3.72      15    8590    1030
    ##  6        5 February    2017 2017-02-28 00:00:00    1.45      15    7830    9950
    ##  7       NA February …    NA NA                     7.49      48   24770   20190
    ##  8        6 March       2017 2017-03-30 00:00:00    1.71      15    8210   10340
    ##  9       NA March Tot…    NA NA                     1.71      15    8210   10340
    ## 10        7 April       2017 2017-04-01 00:00:00    1.82      15    9830   11020
    ## # … with 105 more rows, 6 more variables: `Cigarette Butts` <dbl>,
    ## #   `Glass Bottles` <dbl>, `Grocery Bags` <dbl>, `Chip Bags` <dbl>,
    ## #   `Sports Balls` <dbl>, `Homes Powered*` <dbl>, and abbreviated variable
    ## #   names ¹​`Weight (tons)`, ²​`Volume (cubic yards)`, ³​`Plastic Bottles`,
    ## #   ⁴​Polystyrene
…
         "Weight(tons)" = weight_tons,
         "Volume(cubic yards)" = volume_cubic_yards,
        "Number_of_plastic_Bottles" = plastic_bottles,
         "Number_of_Polystyrene" = polystyrene,
         "Number_of_Cigarette_Butts" = cigarette_butts,
         "Number_of_Grocery_bags" = grocery_bags,
         "Number_of_Chip_bags" = chip_bags,
         "Number_of_Sports_balls" = sports_balls)
data2$'Dumpster number'<- as.character(data2$'Dumpster number')
data2$Number_of_Sports_balls <- round (data2$Number_of_Sports_balls, 0) # round the variable to the nearest integer.
data2$Number_of_Sports_balls <- as.integer(data2$Number_of_Sports_balls) # round the number of sports balls to the nearest integer and convert the type to integer. 
data2
```

    ## # A tibble: 71 × 14
    ##    Dumpster nu…¹ month  year date                Weigh…² Volum…³ Numbe…⁴ Numbe…⁵
    ##    <chr>         <chr> <dbl> <dttm>                <dbl>   <dbl>   <dbl>   <dbl>
    ##  1 1             Janu…  2017 2017-01-02 00:00:00    1.79      15    1950    6080
    ##  2 2             Janu…  2017 2017-01-30 00:00:00    1.58      15    9540   11230
    ##  3 3             Febr…  2017 2017-02-26 00:00:00    2.32      18    8350    9210
    ##  4 4             Febr…  2017 2017-02-26 00:00:00    3.72      15    8590    1030
    ##  5 5             Febr…  2017 2017-02-28 00:00:00    1.45      15    7830    9950
    ##  6 6             March  2017 2017-03-30 00:00:00    1.71      15    8210   10340
    ##  7 7             April  2017 2017-04-01 00:00:00    1.82      15    9830   11020
    ##  8 8             April  2017 2017-04-20 00:00:00    2.37      15    9240    8760
    ##  9 9             May    2017 2017-05-10 00:00:00    2.64      15    9540    8810
    ## 10 10            May    2017 2017-05-26 00:00:00    2.78      15    8230    7800
    ## # … with 61 more rows, 6 more variables: Number_of_Cigarette_Butts <dbl>,
    ## #   glass_bottles <dbl>, Number_of_Grocery_bags <dbl>,
    ## #   Number_of_Chip_bags <dbl>, Number_of_Sports_balls <int>,
    ## #   homes_powered <dbl>, and abbreviated variable names ¹​`Dumpster number`,
    ## #   ²​`Weight(tons)`, ³​`Volume(cubic yards)`, ⁴​Number_of_plastic_Bottles,
    ## #   ⁵​Number_of_Polystyrene
…
